<svg width="300" height="300" viewBox="0 0 300 300" fill="none" xmlns="http://www.w3.org/2000/svg">
<rect width="300" height="300" fill="#14CDA1"/>
<rect x="98.8279" y="60" width="151.535" height="29.4651" fill="white"/>
<rect x="220.898" y="241" width="181" height="29.4651" transform="rotate(-90 220.898 241)" fill="white"/>
<rect x="204.06" y="241" width="151.535" height="29.4651" transform="rotate(-180 204.06 241)" fill="white"/>
<rect x="79.4651" y="60" width="181" height="29.4651" transform="rotate(90 79.4651 60)" fill="white"/>
</svg>
